%YAML 1.1
%TAG !u! tag:unity3d.com,2011:
--- !u!114 &11400000
MonoBehaviour:
  m_ObjectHideFlags: 0
  m_CorrespondingSourceObject: {fileID: 0}
  m_PrefabInstance: {fileID: 0}
  m_PrefabAsset: {fileID: 0}
  m_GameObject: {fileID: 0}
  m_Enabled: 1
  m_EditorHideFlags: 0
  m_Script: {fileID: 11500000, guid: 30a0fe8f7efe44452a5d3dc37306f561, type: 3}
  m_Name: SceneMetadataStore
  m_EditorClassIdentifier: 
  m_sceneMetaList:
  - m_name: MainMenu
    m_guid: c37c845a966eddc4896195007099d0d7
    m_path: Assets/Scenes/MainMenu.unity
    m_enabled: 1
  - m_name: GameScene
    m_guid: 9fc0d4010bbf28b4594072e72b8655ab
    m_path: Assets/Scenes/GameScene.unity
    m_enabled: 1
