%YAML 1.1
%TAG !u! tag:unity3d.com,2011:
--- !u!114 &11400000
MonoBehaviour:
  m_ObjectHideFlags: 0
  m_CorrespondingSourceObject: {fileID: 0}
  m_PrefabInstance: {fileID: 0}
  m_PrefabAsset: {fileID: 0}
  m_GameObject: {fileID: 0}
  m_Enabled: 1
  m_EditorHideFlags: 0
  m_Script: {fileID: 11500000, guid: af39f6011da114357b9d093be504a3fd, type: 3}
  m_Name: SerializationSettings
  m_EditorClassIdentifier: 
  m_bufferSize: 1024
  m_serializationMethod: 1
  m_storageTarget: 1
  m_saveFolderName: Saves
  m_preloadResourceObjects: 1
