%YAML 1.1
%TAG !u! tag:unity3d.com,2011:
--- !u!1 &2612832670112087201
GameObject:
  m_ObjectHideFlags: 0
  m_CorrespondingSourceObject: {fileID: 0}
  m_PrefabInstance: {fileID: 0}
  m_PrefabAsset: {fileID: 0}
  serializedVersion: 6
  m_Component:
  - component: {fileID: 2612832670112087203}
  - component: {fileID: 2612832670112087200}
  m_Layer: 0
  m_Name: SaveManager
  m_TagString: Untagged
  m_Icon: {fileID: 0}
  m_NavMeshLayer: 0
  m_StaticEditorFlags: 0
  m_IsActive: 1
--- !u!4 &2612832670112087203
Transform:
  m_ObjectHideFlags: 0
  m_CorrespondingSourceObject: {fileID: 0}
  m_PrefabInstance: {fileID: 0}
  m_PrefabAsset: {fileID: 0}
  m_GameObject: {fileID: 2612832670112087201}
  m_LocalRotation: {x: 0, y: 0, z: 0, w: 1}
  m_LocalPosition: {x: 2109.9197, y: -1837.1068, z: 2660.7053}
  m_LocalScale: {x: 1, y: 1, z: 1}
  m_Children: []
  m_Father: {fileID: 0}
  m_RootOrder: 0
  m_LocalEulerAnglesHint: {x: 0, y: 0, z: 0}
--- !u!114 &2612832670112087200
MonoBehaviour:
  m_ObjectHideFlags: 0
  m_CorrespondingSourceObject: {fileID: 0}
  m_PrefabInstance: {fileID: 0}
  m_PrefabAsset: {fileID: 0}
  m_GameObject: {fileID: 2612832670112087201}
  m_Enabled: 1
  m_EditorHideFlags: 0
  m_Script: {fileID: 11500000, guid: 381a9ca43519fbc4295c773afa6a6e38, type: 3}
  m_Name: 
  m_EditorClassIdentifier: 
  roadGraphGeneration: {fileID: 0}
  heightMapApplier: {fileID: 0}
  buildingCreator: {fileID: 0}
  zoneController: {fileID: 0}
  peopleManager: {fileID: 0}
  cityCouncil: {fileID: 0}
  loadingScreen: {fileID: 0}
  savingScreen: {fileID: 0}
